<?xml version="1.0" encoding="utf-8"?>
<!-- Generator: Adobe Illustrator 16.0.0, SVG Export Plug-In . SVG Version: 6.00 Build 0)  -->
<!DOCTYPE svg PUBLIC "-//W3C//DTD SVG 1.1//EN" "http://www.w3.org/Graphics/SVG/1.1/DTD/svg11.dtd">
<svg version="1.1" id="Grupo_270" xmlns="http://www.w3.org/2000/svg" xmlns:xlink="http://www.w3.org/1999/xlink" x="0px" y="0px"
	 width="75px" height="39.229px" viewBox="0 0 75 39.229" enable-background="new 0 0 75 39.229" xml:space="preserve">
<g id="Grupo_169" transform="translate(17.267 10.145)">
	<path id="Caminho_225" fill="#A90C44" d="M6.17,6.11c0.223,0.229,0.223,0.592,0,0.821C6.033,7.04,5.859,7.095,5.685,7.083H0.734
		C0.547,7.092,0.365,7.027,0.227,6.902C0.102,6.785,0.034,6.62,0.039,6.449c0.006-0.198,0.083-0.388,0.216-0.533l4.024-4.737H0.646
		C0.476,1.19,0.309,1.136,0.177,1.028c-0.224-0.228-0.224-0.593,0-0.821c0.131-0.108,0.299-0.161,0.468-0.151h4.808
		c0.185-0.007,0.365,0.061,0.5,0.187c0.128,0.114,0.201,0.276,0.2,0.447C6.148,0.886,6.071,1.075,5.938,1.221L1.913,5.958h3.779
		C5.864,5.949,6.034,6.002,6.17,6.11z"/>
</g>
<g id="Grupo_170" transform="translate(25.481 4.372)">
	<path id="Caminho_226" fill="#A90C44" d="M4.26,4.271c0.153,0.159,0.153,0.409,0,0.567c-0.095,0.074-0.215,0.109-0.335,0.1H0.505
		C0.377,4.945,0.25,4.9,0.155,4.814C0.069,4.732,0.022,4.618,0.025,4.5C0.03,4.364,0.082,4.234,0.174,4.132l2.78-3.271H0.445
		C0.327,0.868,0.21,0.83,0.12,0.756c-0.153-0.158-0.153-0.409,0-0.567C0.211,0.116,0.328,0.08,0.445,0.09h3.321
		c0.127-0.005,0.25,0.042,0.343,0.128c0.087,0.079,0.136,0.191,0.135,0.308C4.24,0.662,4.186,0.793,4.093,0.894L1.315,4.166h2.61
		C4.046,4.158,4.165,4.195,4.26,4.271z"/>
</g>
<g id="Grupo_171" transform="translate(19.896 0)">
	<path id="Caminho_227" fill="#A90C44" d="M3.191,3.247c0.115,0.118,0.115,0.306,0,0.425c-0.07,0.057-0.16,0.084-0.25,0.078H0.383
		C0.287,3.756,0.192,3.722,0.121,3.657c-0.065-0.061-0.102-0.146-0.1-0.234c0.003-0.102,0.042-0.2,0.112-0.274L2.212,0.7H0.335
		C0.247,0.705,0.16,0.677,0.092,0.622c-0.115-0.118-0.115-0.306,0-0.423C0.16,0.142,0.247,0.114,0.335,0.12H2.82
		c0.096-0.003,0.189,0.033,0.258,0.099c0.064,0.06,0.101,0.144,0.1,0.232C3.174,0.553,3.135,0.65,3.066,0.725L0.987,3.173h1.952
		C3.03,3.165,3.12,3.192,3.191,3.247z"/>
</g>
<path id="Caminho_228" fill="#A90C44" d="M73.868,36.899h-7.552c-18.011-12.825-29.345-11.297-36.212-6.386
	c-1.822-6.886-8.911-10.999-15.834-9.187c-5.698,1.491-9.667,6.616-9.664,12.476c0.002,1.045,0.133,2.085,0.391,3.098H2.245v-21.5
	c0.019-0.613-0.466-1.124-1.081-1.142c-0.616-0.019-1.129,0.463-1.147,1.075c0,0.022,0,0.044,0,0.067v22.612
	c0,0.611,0.498,1.107,1.112,1.107c0.001,0,0.001,0,0.002,0h72.736c0.615,0.019,1.13-0.462,1.148-1.074
	c0.017-0.611-0.466-1.122-1.082-1.141c-0.021-0.001-0.044-0.001-0.066,0V36.899z"/>
</svg>
