<svg xmlns="http://www.w3.org/2000/svg" width="130.759" height="237.763" viewBox="0 0 130.759 237.763">
  <path id="Caminho_618" data-name="Caminho 618" d="M374.74,2579.644c-4.662-11.538-17.677-47.5-12.7-78.52a4.274,4.274,0,0,0-7-3.913c-25.35,21.715-81.8,97.327-86.4,171.442a4.274,4.274,0,0,1-7.271,2.777h0c-1.585-1.565-5.674-3.865-9.283-5.734a3.247,3.247,0,0,0-4.634,3.708c6.594,25.095,16.838,62.673,18.726,61.345,2.1-1.477,28.7-26.7,42.232-39.568a4.276,4.276,0,0,0-2.975-7.373l-13.885.072a4.273,4.273,0,0,1-4.232-5.043c2.843-15.344,16.956-62.167,85.252-93.73A4.26,4.26,0,0,0,374.74,2579.644Z" transform="translate(-245.807 -2494.576)" fill="#a90c44" stroke="#a90c44" stroke-linecap="round" stroke-linejoin="round" stroke-width="3"/>
</svg>
